﻿SongName,DifficultRank,DifficultValue,totalNotes,totalTime,AverageNotes,VoltageNotes
,,,,,,
song1,習,1,12,3.666666667,3.272727273,11
,,,,,,
song1,楽,10,7,3.333333333,2.1,7
,,,,,,
song1,鬼,15,26,2.541666667,10.2295082,26
,,,,,,
song2,習,1,12,13,0.923076923,6
,,,,,,
song2,楽,10,7,12,0.583333333,5
,,,,,,
song2,鬼,15,26,7.625,3.409836066,16
